1 Data Exploration Refresher – Data-330-Book
…
1.1 Dplyr

The dplyr library contains powerful tools that make cleaning, sorting, filtering, and manipulating datasets easy. To see this in action we will look at the airquality dataset which is available in base R. Before we dive into the functions, we should remind ourselves that the |> pipe function allows us to take a dataframe and pass it into a function without having to specify the dataframe. Think of the pipe as saying ‘and then.’ We take this dataset, and then we select these columns, and then we rename one of them, and then…. This makes the code much cleaner and easier to interpret/write.

1.1.1 Select

The first function we should familiarize ourselves with is the select() function, which allows us to select which columns we want to include in the dataframe. In the code below we can see that original dataset had 17 columns, but knowing that all were not vital for us we only selected 5 that we knew we were going to work with.

county_data <- tibble(county_data)

county_data

# A tibble: 3,142 × 17
   state   name        fips    pop households median_age age_over_18 age_over_65
   <chr>   <chr>      <int>  <int>      <int>      <dbl>       <dbl>       <dbl>
 1 Alabama Autauga C…  1001  55380      21397       38.2        76.2        15  
 2 Alabama Baldwin C…  1003 212830      80930       43          78.3        20  
 3 Alabama Barbour C…  1005  25361       9345       40.4        79.1        18.6
 4 Alabama Bibb Coun…  1007  22493       6891       40.9        79.4        15.9
 5 Alabama Blount Co…  1009  57681      20847       40.7        76.8        17.9
 6 Alabama Bullock C…  1011  10248       3521       40.2        79.2        16  
 7 Alabama Butler Co…  1013  19828       6506       40.8        77.5        19.7
 8 Alabama Calhoun C…  1015 114618      44605       39.6        78.2        17.2
 9 Alabama Chambers …  1017  33660      13448       42          79          19.2
10 Alabama Cherokee …  1019  25903      10737       46.5        79.8        22.4
# ℹ 3,132 more rows
# ℹ 9 more variables: hs_grad <dbl>, bachelors <dbl>, white <dbl>, black <dbl>,
#   hispanic <dbl>, household_has_smartphone <dbl>,
#   mean_household_income <int>, median_household_income <int>,
#   unemployment_rate <dbl>

county_data |> select(state, name, pop, bachelors, median_household_income)

# A tibble: 3,142 × 5
   state   name               pop bachelors median_household_income
   <chr>   <chr>            <int>     <dbl>                   <int>
 1 Alabama Autauga County   55380      26.6                   58731
 2 Alabama Baldwin County  212830      31.9                   58320
 3 Alabama Barbour County   25361      11.6                   32525
 4 Alabama Bibb County      22493      10.4                   47542
 5 Alabama Blount County    57681      13.1                   49358
 6 Alabama Bullock County   10248      12.1                   37785
 7 Alabama Butler County    19828      16.1                   40688
 8 Alabama Calhoun County  114618      18.5                   47255
 9 Alabama Chambers County  33660      13.3                   42289
10 Alabama Cherokee County  25903      12.8                   41919
# ℹ 3,132 more rows

1.1.2 Rename

Another command which might be useful for us is the rename() function, which allows us to rename a column (who would have thought?!?). In the code below we can see that we have renamed the “median_household_income” to “med_income”. This makes it easier to reference later as we will not have to type in the long name anymore. Also notice that we start with a dataframe called county_data, which we then pipe a function to create a new dataframe with only 5 columns selected, which we then pipe into a function to create a new dataframe with the “median_household_income” column renamed. All of this to say that we can (and will) have lines of code that utilize multiple functions and pipes. It should also be noted that what we have made is a temporary dataframe, if we want to save it then we will need to save it to a variable (which we do below).

county_data |> select(state, name, pop, bachelors, median_household_income) |> 
    rename(med_income = median_household_income)

# A tibble: 3,142 × 5
   state   name               pop bachelors med_income
   <chr>   <chr>            <int>     <dbl>      <int>
 1 Alabama Autauga County   55380      26.6      58731
 2 Alabama Baldwin County  212830      31.9      58320
 3 Alabama Barbour County   25361      11.6      32525
 4 Alabama Bibb County      22493      10.4      47542
 5 Alabama Blount County    57681      13.1      49358
 6 Alabama Bullock County   10248      12.1      37785
 7 Alabama Butler County    19828      16.1      40688
 8 Alabama Calhoun County  114618      18.5      47255
 9 Alabama Chambers County  33660      13.3      42289
10 Alabama Cherokee County  25903      12.8      41919
# ℹ 3,132 more rows

cd1 <- county_data |> select(state, name, pop, bachelors, median_household_income) |> 
           rename(med_income = median_household_income)

cd1

# A tibble: 3,142 × 5
   state   name               pop bachelors med_income
   <chr>   <chr>            <int>     <dbl>      <int>
 1 Alabama Autauga County   55380      26.6      58731
 2 Alabama Baldwin County  212830      31.9      58320
 3 Alabama Barbour County   25361      11.6      32525
 4 Alabama Bibb County      22493      10.4      47542
 5 Alabama Blount County    57681      13.1      49358
 6 Alabama Bullock County   10248      12.1      37785
 7 Alabama Butler County    19828      16.1      40688
 8 Alabama Calhoun County  114618      18.5      47255
 9 Alabama Chambers County  33660      13.3      42289
10 Alabama Cherokee County  25903      12.8      41919
# ℹ 3,132 more rows
…
cd1 |> summarise(total_pop = sum(pop), avg_income = mean(med_income))

# A tibble: 1 × 2
  total_pop avg_income
      <int>      <dbl>
1 324697795     53476.

1.1.7 Group By

Calculating statistics on a whole dataset is nice, but it is also beneficial to calculate the statistics based on some categorical characteristic within the dataset. To do this we can use the group_by() function which (behind the scenes) will essentially make small datasets for each characteristic. Using the summarise() with this allows us to make calculations on each group. In the example below we calculate the total population for each state along with the average median income level for each state.

cd1 |> group_by(state) |>
    summarise(total_pop = sum(pop), avg_income = mean(med_income))

# A tibble: 51 × 3
   state                total_pop avg_income
   <chr>                    <int>      <dbl>
 1 Alabama                4876250     43575.
 2 Alaska                  737068     67789.
 3 Arizona                7050299     48990.
 4 Arkansas               2999370     42237.
 5 California            39283497     67714.
 6 Colorado               5610349     58795.
 7 Connecticut            3575074     79201.
 8 Delaware                957248     65988 
 9 District of Columbia    692683     86420 
10 Florida               20901636     51290.
# ℹ 41 more rows

1.2 Tidyr

When dealing with data, it is important to be able to manipulate the data into a “usable” format. This is often referred to as making sure the data is “tidy”, meaning each column is a variable, each row is an observation, and each cell has a single value. To accomplish this task we will use the tidyr library. First though, lets look at the population dataset that we will be working with. I have filtered it so only the first 5 years are present for each country.

pop1 <- population |> filter(year %in% c(1995,1996,1997,1998,1999))
pop1

# A tibble: 1,060 × 3
   country      year population
   <chr>       <dbl>      <dbl>
 1 Afghanistan  1995   17586073
 2 Afghanistan  1996   18415307
 3 Afghanistan  1997   19021226
 4 Afghanistan  1998   19496836
 5 Afghanistan  1999   19987071
 6 Albania      1995    3357858
 7 Albania      1996    3341043
 8 Albania      1997    3331317
 9 Albania      1998    3325456
10 Albania      1999    3317941
# ℹ 1,050 more rows

1.2.1 Pivot Wider

As we can see that the dataset is not tidy because the information for one observation (a country) is spread across multiple rows. We’d like all of a country’s values to live on the same row. To fix this we can do what we call “pivoting wider”. This will take the take the categorical data in a single column and turn it into column headers while the values from the other column are matched up to the observation and column header. In the code below we first use the mutate() and unite() function to alter the years so that a letter is present, this is because column names cannot start with a number in R unless we put them in quotes. To avoid constantly typing quotes later, we’re prepending a ‘y’ to the year.

pop1 |> mutate(y="y") |> unite("year", c(y, year)) |>
    pivot_wider(names_from = year, values_from = population)

# A tibble: 212 × 6
   country               y_1995   y_1996   y_1997   y_1998   y_1999
   <chr>                  <dbl>    <dbl>    <dbl>    <dbl>    <dbl>
 1 Afghanistan         17586073 18415307 19021226 19496836 19987071
 2 Albania              3357858  3341043  3331317  3325456  3317941
 3 Algeria             29315463 29845208 30345466 30820435 31276295
 4 American Samoa         52874    53926    54942    55899    56768
 5 Andorra                63854    64274    64090    63799    64084
 6 Angola              12104952 12451945 12791388 13137542 13510616
 7 Anguilla                9807    10063    10305    10545    10797
 8 Antigua and Barbuda    68349    70245    72232    74206    76041
 9 Argentina           34833168 35264070 35690778 36109342 36514558
10 Armenia              3223173  3173425  3137652  3112958  3093820
# ℹ 202 more rows

We would consider the output above to now be tidy because all values associated with a country are now in the same row.

1.2.2 Pivot Longer

Since pivoting wider takes values in a column and turns them into column headers, pivoting longer will take the column headers the transform them into columns themselves. Notice that pivot_longer takes the year columns (y_1995, y_1996, …) and stacks them into two columns: one for year and one for population. This gets us back to the original tall format.

pop1 |> mutate(y="y") |> unite("year", c(y, year)) |>
    pivot_wider(names_from = year, values_from = population) |>
    pivot_longer(y_1995:y_1999, names_to = "year", values_to = "population")

# A tibble: 1,060 × 3
   country     year   population
   <chr>       <chr>       <dbl>
 1 Afghanistan y_1995   17586073
 2 Afghanistan y_1996   18415307
 3 Afghanistan y_1997   19021226
 4 Afghanistan y_1998   19496836
 5 Afghanistan y_1999   19987071
 6 Albania     y_1995    3357858
 7 Albania     y_1996    3341043
 8 Albania     y_1997    3331317
 9 Albania     y_1998    3325456
10 Albania     y_1999    3317941
# ℹ 1,050 more rows
