2 Introducing Databases – Data-330-Book
…
  student_id          name  gpa
1         16  Stacy Hughes 3.98
2         25 Isabela Brown 3.94
3         45  Frank Nelson 3.94
4         18  Yara Vasquez 3.91
5         43  Grant Nelson 3.88
6         12 Victor Parker 3.87

tbl(db_con, "Students") |> select(student_id, name, gpa) |> 
        arrange(desc(gpa)) |> 
        collect()

# A tibble: 50 × 3
   student_id name            gpa
        <int> <chr>         <dbl>
 1         16 Stacy Hughes   3.98
 2         25 Isabela Brown  3.94
 3         45 Frank Nelson   3.94
 4         18 Yara Vasquez   3.91
 5         43 Grant Nelson   3.88
 6         12 Victor Parker  3.87
 7         13 Yara Turner    3.85
 8         29 Quinn Vasquez  3.82
 9          2 Stacy Roberts  3.81
10          4 Claire Young   3.76
# ℹ 40 more rows
…
